[
  {
    "Id": 0,
    "Name": "Afghanistan",
    "PhoneCode": "+93",
    "CountryCode": "AF",
    "IsRestricted": false
  },
  {
    "Id": 1,
    "Name": "Aland Islands",
    "PhoneCode": "+358",
    "CountryCode": "AX",
    "IsRestricted": false
  },
  {
    "Id": 2,
    "Name": "Albania",
    "PhoneCode": "+355",
    "CountryCode": "AL",
    "IsRestricted": false
  },
  {
    "Name": "Algeria",
    "PhoneCode": "+213",
    "CountryCode": "DZ",
    "IsRestricted": false
  },
  {
    "Id": 3,
    "Name": "AmericanSamoa",
    "PhoneCode": "+1684",
    "CountryCode": "AS",
    "IsRestricted": false
  },
  {
    "Id": 4,
    "Name": "Andorra",
    "PhoneCode": "+376",
    "CountryCode": "AD",
    "IsRestricted": false
  },
  {
    "Id": 5,
    "Name": "Angola",
    "PhoneCode": "+244",
    "CountryCode": "AO",
    "IsRestricted": false
  },
  {
    "Id": 6,
    "Name": "Anguilla",
    "PhoneCode": "+1264",
    "CountryCode": "AI",
    "IsRestricted": false
  },
  {
    "Id": 7,
    "Name": "Antarctica",
    "PhoneCode": "+672",
    "CountryCode": "AQ",
    "IsRestricted": false
  },
  {
    "Id": 8,
    "Name": "Antigua and Barbuda",
    "PhoneCode": "+1268",
    "CountryCode": "AG",
    "IsRestricted": false
  },
  {
    "Name": "Argentina",
    "PhoneCode": "+54",
    "CountryCode": "AR",
    "IsRestricted": false
  },
  {
    "Id": 9,
    "Name": "Armenia",
    "PhoneCode": "+374",
    "CountryCode": "AM",
    "IsRestricted": false
  },
  {
    "Name": "Aruba",
    "PhoneCode": "+297",
    "CountryCode": "AW",
    "IsRestricted": false
  },
  {
    "Id": 10,
    "Name": "Australia",
    "PhoneCode": "+61",
    "CountryCode": "AU",
    "IsRestricted": false
  },
  {
    "Id": 11,
    "Name": "Austria",
    "PhoneCode": "+43",
    "CountryCode": "AT",
    "IsRestricted": false
  },
  {
    "Id": 12,
    "Name": "Azerbaijan",
    "PhoneCode": "+994",
    "CountryCode": "AZ",
    "IsRestricted": false
  },
  {
    "Id": 13,
    "Name": "Bahamas",
    "PhoneCode": "+1242",
    "CountryCode": "BS",
    "IsRestricted": false
  },
  {
    "Id": 14,
    "Name": "Bahrain",
    "PhoneCode": "+973",
    "CountryCode": "BH",
    "IsRestricted": false
  },
  {
    "Id": 15,
    "Name": "Bangladesh",
    "PhoneCode": "+880",
    "CountryCode": "BD",
    "IsRestricted": false
  },
  {
    "Id": 16,
    "Name": "Barbados",
    "PhoneCode": "+1246",
    "CountryCode": "BB",
    "IsRestricted": false
  },
  {
    "Id": 17,
    "Name": "Belarus",
    "PhoneCode": "+375",
    "CountryCode": "BY",
    "IsRestricted": false
  },
  {
    "Id": 18,
    "Name": "Belgium",
    "PhoneCode": "+32",
    "CountryCode": "BE",
    "IsRestricted": false
  },
  {
    "Id": 19,
    "Name": "Belize",
    "PhoneCode": "+501",
    "CountryCode": "BZ",
    "IsRestricted": false
  },
  {
    "Id": 20,
    "Name": "Benin",
    "PhoneCode": "+229",
    "CountryCode": "BJ",
    "IsRestricted": false
  },
  {
    "Id": 21,
    "Name": "Bermuda",
    "PhoneCode": "+1441",
    "CountryCode": "BM",
    "IsRestricted": false
  },
  {
    "Id": 22,
    "Name": "Bhutan",
    "PhoneCode": "+975",
    "CountryCode": "BT",
    "IsRestricted": false
  },
  {
    "Id": 23,
    "Name": "Bolivia, Plurinational State of",
    "PhoneCode": "+591",
    "CountryCode": "BO",
    "IsRestricted": false
  },
  {
    "Id": 24,
    "Name": "Bosnia and Herzegovina",
    "PhoneCode": "+387",
    "CountryCode": "BA",
    "IsRestricted": false
  },
  {
    "Id": 25,
    "Name": "Botswana",
    "PhoneCode": "+267",
    "CountryCode": "BW",
    "IsRestricted": false
  },
  {
    "Id": 26,
    "Name": "Brazil",
    "PhoneCode": "+55",
    "CountryCode": "BR",
    "IsRestricted": false
  },
  {
    "Id": 27,
    "Name": "British Indian Ocean Territory",
    "PhoneCode": "+246",
    "CountryCode": "IO",
    "IsRestricted": false
  },
  {
    "Id": 28,
    "Name": "Brunei Darussalam",
    "PhoneCode": "+673",
    "CountryCode": "BN",
    "IsRestricted": false
  },
  {
    "Id": 29,
    "Name": "Bulgaria",
    "PhoneCode": "+359",
    "CountryCode": "BG",
    "IsRestricted": false
  },
  {
    "Id": 30,
    "Name": "Burkina Faso",
    "PhoneCode": "+226",
    "CountryCode": "BF",
    "IsRestricted": false
  },
  {
    "Id": 31,
    "Name": "Burundi",
    "PhoneCode": "+257",
    "CountryCode": "BI",
    "IsRestricted": false
  },
  {
    "Id": 32,
    "Name": "Cambodia",
    "PhoneCode": "+855",
    "CountryCode": "KH",
    "IsRestricted": false
  },
  {
    "Id": 33,
    "Name": "Cameroon",
    "PhoneCode": "+237",
    "CountryCode": "CM",
    "IsRestricted": false
  },
  {
    "Id": 34,
    "Name": "Canada",
    "PhoneCode": "+1",
    "CountryCode": "CA",
    "IsRestricted": false
  },
  {
    "Id": 35,
    "Name": "Cape Verde",
    "PhoneCode": "+238",
    "CountryCode": "CV",
    "IsRestricted": false
  },
  {
    "Id": 36,
    "Name": "Cayman Islands",
    "PhoneCode": "+ 345",
    "CountryCode": "KY",
    "IsRestricted": false
  },
  {
    "Id": 37,
    "Name": "Central African Republic",
    "PhoneCode": "+236",
    "CountryCode": "CF",
    "IsRestricted": false
  },
  {
    "Name": "Chad",
    "PhoneCode": "+235",
    "CountryCode": "TD",
    "IsRestricted": false
  },
  {
    "Id": 38,
    "Name": "Chile",
    "PhoneCode": "+56",
    "CountryCode": "CL",
    "IsRestricted": false
  },
  {
    "Id": 39,
    "Name": "China",
    "PhoneCode": "+86",
    "CountryCode": "CN",
    "IsRestricted": false
  },
  {
    "Id": 40,
    "Name": "Christmas Island",
    "PhoneCode": "+61",
    "CountryCode": "CX",
    "IsRestricted": false
  },
  {
    "Id": 41,
    "Name": "Cocos (Keeling) Islands",
    "PhoneCode": "+61",
    "CountryCode": "CC",
    "IsRestricted": false
  },
  {
    "Id": 42,
    "Name": "Colombia",
    "PhoneCode": "+57",
    "CountryCode": "CO",
    "IsRestricted": false
  },
  {
    "Id": 43,
    "Name": "Comoros",
    "PhoneCode": "+269",
    "CountryCode": "KM",
    "IsRestricted": false
  },
  {
    "Id": 44,
    "Name": "Congo",
    "PhoneCode": "+242",
    "CountryCode": "CG",
    "IsRestricted": false
  },
  {
    "Id": 45,
    "Name": "Congo, The Democratic Republic of the Congo",
    "PhoneCode": "+243",
    "CountryCode": "CD",
    "IsRestricted": false
  },
  {
    "Id": 46,
    "Name": "Cook Islands",
    "PhoneCode": "+682",
    "CountryCode": "CK",
    "IsRestricted": false
  },
  {
    "Id": 47,
    "Name": "Costa Rica",
    "PhoneCode": "+506",
    "CountryCode": "CR",
    "IsRestricted": false
  },
  {
    "Id": 48,
    "Name": "Cote d'Ivoire",
    "PhoneCode": "+225",
    "CountryCode": "CI",
    "IsRestricted": false
  },
  {
    "Id": 49,
    "Name": "Croatia",
    "PhoneCode": "+385",
    "CountryCode": "HR",
    "IsRestricted": false
  },
  {
    "Id": 50,
    "Name": "Cuba",
    "PhoneCode": "+53",
    "CountryCode": "CU",
    "IsRestricted": false
  },
  {
    "Id": 51,
    "Name": "Cyprus",
    "PhoneCode": "+357",
    "CountryCode": "CY",
    "IsRestricted": false
  },
  {
    "Id": 52,
    "Name": "Czech Republic",
    "PhoneCode": "+420",
    "CountryCode": "CZ",
    "IsRestricted": false
  },
  {
    "Id": 53,
    "Name": "Denmark",
    "PhoneCode": "+45",
    "CountryCode": "DK",
    "IsRestricted": false
  },
  {
    "Id": 54,
    "Name": "Djibouti",
    "PhoneCode": "+253",
    "CountryCode": "DJ",
    "IsRestricted": false
  },
  {
    "Id": 55,
    "Name": "Dominica",
    "PhoneCode": "+1767",
    "CountryCode": "DM",
    "IsRestricted": false
  },
  {
    "Id": 56,
    "Name": "Dominican Republic",
    "PhoneCode": "+1849",
    "CountryCode": "DO",
    "IsRestricted": false
  },
  {
    "Id": 57,
    "Name": "Ecuador",
    "PhoneCode": "+593",
    "CountryCode": "EC",
    "IsRestricted": false
  },
  {
    "Id": 58,
    "Name": "Egypt",
    "PhoneCode": "+20",
    "CountryCode": "EG",
    "IsRestricted": false
  },
  {
    "Id": 59,
    "Name": "El Salvador",
    "PhoneCode": "+503",
    "CountryCode": "SV",
    "IsRestricted": false
  },
  {
    "Id": 60,
    "Name": "Equatorial Guinea",
    "PhoneCode": "+240",
    "CountryCode": "GQ",
    "IsRestricted": false
  },
  {
    "Id": 61,
    "Name": "Eritrea",
    "PhoneCode": "+291",
    "CountryCode": "ER",
    "IsRestricted": false
  },
  {
    "Id": 62,
    "Name": "Estonia",
    "PhoneCode": "+372",
    "CountryCode": "EE",
    "IsRestricted": false
  },
  {
    "Id": 63,
    "Name": "Ethiopia",
    "PhoneCode": "+251",
    "CountryCode": "ET",
    "IsRestricted": false
  },
  {
    "Id": 64,
    "Name": "Falkland Islands (Malvinas)",
    "PhoneCode": "+500",
    "CountryCode": "FK",
    "IsRestricted": false
  },
  {
    "Id": 65,
    "Name": "Faroe Islands",
    "PhoneCode": "+298",
    "CountryCode": "FO",
    "IsRestricted": false
  },
  {
    "Id": 66,
    "Name": "Fiji",
    "PhoneCode": "+679",
    "CountryCode": "FJ",
    "IsRestricted": false
  },
  {
    "Id": 67,
    "Name": "Finland",
    "PhoneCode": "+358",
    "CountryCode": "FI",
    "IsRestricted": false
  },
  {
    "Id": 68,
    "Name": "France",
    "PhoneCode": "+33",
    "CountryCode": "FR",
    "IsRestricted": false
  },
  {
    "Id": 69,
    "Name": "French Guiana",
    "PhoneCode": "+594",
    "CountryCode": "GF",
    "IsRestricted": false
  },
  {
    "Id": 70,
    "Name": "French Polynesia",
    "PhoneCode": "+689",
    "CountryCode": "PF",
    "IsRestricted": false
  },
  {
    "Id": 71,
    "Name": "Gabon",
    "PhoneCode": "+241",
    "CountryCode": "GA",
    "IsRestricted": false
  },
  {
    "Id": 72,
    "Name": "Gambia",
    "PhoneCode": "+220",
    "CountryCode": "GM",
    "IsRestricted": false
  },
  {
    "Id": 73,
    "Name": "Georgia",
    "PhoneCode": "+995",
    "CountryCode": "GE",
    "IsRestricted": false
  },
  {
    "Id": 74,
    "Name": "Germany",
    "PhoneCode": "+49",
    "CountryCode": "DE",
    "IsRestricted": false
  },
  {
    "Id": 72,
    "Name": "Ghana",
    "PhoneCode": "+233",
    "CountryCode": "GH",
    "IsRestricted": false
  },
  {
    "Id": 75,
    "Name": "Gibraltar",
    "PhoneCode": "+350",
    "CountryCode": "GI",
    "IsRestricted": false
  },
  {
    "Id": 76,
    "Name": "Greece",
    "PhoneCode": "+30",
    "CountryCode": "GR",
    "IsRestricted": false
  },
  {
    "Id": 77,
    "Name": "Greenland",
    "PhoneCode": "+299",
    "CountryCode": "GL",
    "IsRestricted": false
  },
  {
    "Id": 78,
    "Name": "Grenada",
    "PhoneCode": "+1473",
    "CountryCode": "GD",
    "IsRestricted": false
  },
  {
    "Id": 79,
    "Name": "Guadeloupe",
    "PhoneCode": "+590",
    "CountryCode": "GP",
    "IsRestricted": false
  },
  {
    "Id": 80,
    "Name": "Guam",
    "PhoneCode": "+1671",
    "CountryCode": "GU",
    "IsRestricted": false
  },
  {
    "Id": 81,
    "Name": "Guatemala",
    "PhoneCode": "+502",
    "CountryCode": "GT",
    "IsRestricted": false
  },
  {
    "Id": 82,
    "Name": "Guernsey",
    "PhoneCode": "+44",
    "CountryCode": "GG",
    "IsRestricted": false
  },
  {
    "Id": 83,
    "Name": "Guinea",
    "PhoneCode": "+224",
    "CountryCode": "GN",
    "IsRestricted": false
  },
  {
    "Id": 84,
    "Name": "Guinea-Bissau",
    "PhoneCode": "+245",
    "CountryCode": "GW",
    "IsRestricted": false
  },
  {
    "Id": 85,
    "Name": "Guyana",
    "PhoneCode": "+595",
    "CountryCode": "GY",
    "IsRestricted": false
  },
  {
    "Id": 86,
    "Name": "Haiti",
    "PhoneCode": "+509",
    "CountryCode": "HT",
    "IsRestricted": false
  },
  {
    "Id": 87,
    "Name": "Holy See (Vatican City State)",
    "PhoneCode": "+379",
    "CountryCode": "VA",
    "IsRestricted": false
  },
  {
    "Id": 88,
    "Name": "Honduras",
    "PhoneCode": "+504",
    "CountryCode": "HN",
    "IsRestricted": false
  },
  {
    "Id": 89,
    "Name": "Hong Kong",
    "PhoneCode": "+852",
    "CountryCode": "HK",
    "IsRestricted": false
  },
  {
    "Id": 90,
    "Name": "Hungary",
    "PhoneCode": "+36",
    "CountryCode": "HU",
    "IsRestricted": false
  },
  {
    "Name": "Iceland",
    "PhoneCode": "+354",
    "CountryCode": "IS",
    "IsRestricted": false
  },
  {
    "Name": "India",
    "PhoneCode": "+91",
    "CountryCode": "IN",
    "IsRestricted": false
  },
  {
    "Name": "Indonesia",
    "PhoneCode": "+62",
    "CountryCode": "ID",
    "IsRestricted": false
  },
  {
    "Name": "Iran, Islamic Republic of Persian Gulf",
    "PhoneCode": "+98",
    "CountryCode": "IR",
    "IsRestricted": false
  },
  {
    "Name": "Iraq",
    "PhoneCode": "+964",
    "CountryCode": "IQ",
    "IsRestricted": false
  },
  {
    "Name": "Ireland",
    "PhoneCode": "+353",
    "CountryCode": "IE",
    "IsRestricted": false
  },
  {
    "Name": "Isle of Man",
    "PhoneCode": "+44",
    "CountryCode": "IM",
    "IsRestricted": false
  },
  {
    "Name": "Israel",
    "PhoneCode": "+972",
    "CountryCode": "IL",
    "IsRestricted": false
  },
  {
    "Name": "Italy",
    "PhoneCode": "+39",
    "CountryCode": "IT",
    "IsRestricted": false
  },
  {
    "Name": "Jamaica",
    "PhoneCode": "+1876",
    "CountryCode": "JM",
    "IsRestricted": false
  },
  {
    "Name": "Japan",
    "PhoneCode": "+81",
    "CountryCode": "JP",
    "IsRestricted": false
  },
  {
    "Name": "Jersey",
    "PhoneCode": "+44",
    "CountryCode": "JE",
    "IsRestricted": false
  },
  {
    "Name": "Jordan",
    "PhoneCode": "+962",
    "CountryCode": "JO",
    "IsRestricted": false
  },
  {
    "Name": "Kazakhstan",
    "PhoneCode": "+77",
    "CountryCode": "KZ",
    "IsRestricted": false
  },
  {
    "Name": "Kenya",
    "PhoneCode": "+254",
    "CountryCode": "KE",
    "IsRestricted": false
  },
  {
    "Name": "Kiribati",
    "PhoneCode": "+686",
    "CountryCode": "KI",
    "IsRestricted": false
  },
  {
    "Name": "Korea, Democratic People's Republic of Korea",
    "PhoneCode": "+850",
    "CountryCode": "KP",
    "IsRestricted": false
  },
  {
    "Name": "Korea, Republic of South Korea",
    "PhoneCode": "+82",
    "CountryCode": "KR",
    "IsRestricted": false
  },
  {
    "Name": "Kuwait",
    "PhoneCode": "+965",
    "CountryCode": "KW",
    "IsRestricted": false
  },
  {
    "Name": "Kyrgyzstan",
    "PhoneCode": "+996",
    "CountryCode": "KG",
    "IsRestricted": false
  },
  {
    "Name": "Laos",
    "PhoneCode": "+856",
    "CountryCode": "LA",
    "IsRestricted": false
  },
  {
    "Name": "Latvia",
    "PhoneCode": "+371",
    "CountryCode": "LV",
    "IsRestricted": false
  },
  {
    "Name": "Lebanon",
    "PhoneCode": "+961",
    "CountryCode": "LB",
    "IsRestricted": false
  },
  {
    "Name": "Lesotho",
    "PhoneCode": "+266",
    "CountryCode": "LS",
    "IsRestricted": false
  },
  {
    "Name": "Liberia",
    "PhoneCode": "+231",
    "CountryCode": "LR",
    "IsRestricted": false
  },
  {
    "Name": "Libyan Arab Jamahiriya",
    "PhoneCode": "+218",
    "CountryCode": "LY",
    "IsRestricted": false
  },
  {
    "Name": "Liechtenstein",
    "PhoneCode": "+423",
    "CountryCode": "LI",
    "IsRestricted": false
  },
  {
    "Name": "Lithuania",
    "PhoneCode": "+370",
    "CountryCode": "LT",
    "IsRestricted": false
  },
  {
    "Name": "Luxembourg",
    "PhoneCode": "+352",
    "CountryCode": "LU",
    "IsRestricted": false
  },
  {
    "Name": "Macao",
    "PhoneCode": "+853",
    "CountryCode": "MO",
    "IsRestricted": false
  },
  {
    "Name": "Macedonia",
    "PhoneCode": "+389",
    "CountryCode": "MK",
    "IsRestricted": false
  },
  {
    "Name": "Madagascar",
    "PhoneCode": "+261",
    "CountryCode": "MG",
    "IsRestricted": false
  },
  {
    "Name": "Malawi",
    "PhoneCode": "+265",
    "CountryCode": "MW",
    "IsRestricted": false
  },
  {
    "Name": "Malaysia",
    "PhoneCode": "+60",
    "CountryCode": "MY",
    "IsRestricted": false
  },
  {
    "Name": "Maldives",
    "PhoneCode": "+960",
    "CountryCode": "MV",
    "IsRestricted": false
  },
  {
    "Name": "Mali",
    "PhoneCode": "+223",
    "CountryCode": "ML",
    "IsRestricted": false
  },
  {
    "Name": "Malta",
    "PhoneCode": "+356",
    "CountryCode": "MT",
    "IsRestricted": false
  },
  {
    "Name": "Marshall Islands",
    "PhoneCode": "+692",
    "CountryCode": "MH",
    "IsRestricted": false
  },
  {
    "Name": "Martinique",
    "PhoneCode": "+596",
    "CountryCode": "MQ",
    "IsRestricted": false
  },
  {
    "Name": "Mauritania",
    "PhoneCode": "+222",
    "CountryCode": "MR",
    "IsRestricted": false
  },
  {
    "Name": "Mauritius",
    "PhoneCode": "+230",
    "CountryCode": "MU",
    "IsRestricted": false
  },
  {
    "Name": "Mayotte",
    "PhoneCode": "+262",
    "CountryCode": "YT",
    "IsRestricted": false
  },
  {
    "Name": "Mexico",
    "PhoneCode": "+52",
    "CountryCode": "MX",
    "IsRestricted": false
  },
  {
    "Name": "Micronesia, Federated States of Micronesia",
    "PhoneCode": "+691",
    "CountryCode": "FM",
    "IsRestricted": false
  },
  {
    "Name": "Moldova",
    "PhoneCode": "+373",
    "CountryCode": "MD",
    "IsRestricted": false
  },
  {
    "Name": "Monaco",
    "PhoneCode": "+377",
    "CountryCode": "MC",
    "IsRestricted": false
  },
  {
    "Name": "Mongolia",
    "PhoneCode": "+976",
    "CountryCode": "MN",
    "IsRestricted": false
  },
  {
    "Name": "Montenegro",
    "PhoneCode": "+382",
    "CountryCode": "ME",
    "IsRestricted": false
  },
  {
    "Name": "Montserrat",
    "PhoneCode": "+1664",
    "CountryCode": "MS",
    "IsRestricted": false
  },
  {
    "Name": "Morocco",
    "PhoneCode": "+212",
    "CountryCode": "MA",
    "IsRestricted": false
  },
  {
    "Name": "Mozambique",
    "PhoneCode": "+258",
    "CountryCode": "MZ",
    "IsRestricted": false
  },
  {
    "Name": "Myanmar",
    "PhoneCode": "+95",
    "CountryCode": "MM",
    "IsRestricted": false
  },
  {
    "Name": "Namibia",
    "PhoneCode": "+264",
    "CountryCode": "NA",
    "IsRestricted": false
  },
  {
    "Name": "Nauru",
    "PhoneCode": "+674",
    "CountryCode": "NR",
    "IsRestricted": false
  },
  {
    "Name": "Nepal",
    "PhoneCode": "+977",
    "CountryCode": "NP",
    "IsRestricted": false
  },
  {
    "Name": "Netherlands",
    "PhoneCode": "+31",
    "CountryCode": "NL",
    "IsRestricted": false
  },
  {
    "Name": "Netherlands Antilles",
    "PhoneCode": "+599",
    "CountryCode": "AN",
    "IsRestricted": false
  },
  {
    "Name": "New Caledonia",
    "PhoneCode": "+687",
    "CountryCode": "NC",
    "IsRestricted": false
  },
  {
    "Name": "New Zealand",
    "PhoneCode": "+64",
    "CountryCode": "NZ",
    "IsRestricted": false
  },
  {
    "Name": "Nicaragua",
    "PhoneCode": "+505",
    "CountryCode": "NI",
    "IsRestricted": false
  },
  {
    "Name": "Niger",
    "PhoneCode": "+227",
    "CountryCode": "NE",
    "IsRestricted": false
  },
  {
    "Name": "Nigeria",
    "PhoneCode": "+234",
    "CountryCode": "NG",
    "IsRestricted": false
  },
  {
    "Name": "Niue",
    "PhoneCode": "+683",
    "CountryCode": "NU",
    "IsRestricted": false
  },
  {
    "Name": "Norfolk Island",
    "PhoneCode": "+672",
    "CountryCode": "NF",
    "IsRestricted": false
  },
  {
    "Name": "Northern Mariana Islands",
    "PhoneCode": "+1670",
    "CountryCode": "MP",
    "IsRestricted": false
  },
  {
    "Name": "Norway",
    "PhoneCode": "+47",
    "CountryCode": "NO",
    "IsRestricted": false
  },
  {
    "Name": "Oman",
    "PhoneCode": "+968",
    "CountryCode": "OM",
    "IsRestricted": false
  },
  {
    "Name": "Pakistan",
    "PhoneCode": "+92",
    "CountryCode": "PK",
    "IsRestricted": false
  },
  {
    "Name": "Palau",
    "PhoneCode": "+680",
    "CountryCode": "PW",
    "IsRestricted": false
  },
  {
    "Name": "Palestinian Territory, Occupied",
    "PhoneCode": "+970",
    "CountryCode": "PS",
    "IsRestricted": false
  },
  {
    "Name": "Panama",
    "PhoneCode": "+507",
    "CountryCode": "PA",
    "IsRestricted": false
  },
  {
    "Name": "Papua New Guinea",
    "PhoneCode": "+675",
    "CountryCode": "PG",
    "IsRestricted": false
  },
  {
    "Name": "Paraguay",
    "PhoneCode": "+595",
    "CountryCode": "PY",
    "IsRestricted": false
  },
  {
    "Name": "Peru",
    "PhoneCode": "+51",
    "CountryCode": "PE",
    "IsRestricted": false
  },
  {
    "Name": "Philippines",
    "PhoneCode": "+63",
    "CountryCode": "PH",
    "IsRestricted": false
  },
  {
    "Name": "Pitcairn",
    "PhoneCode": "+872",
    "CountryCode": "PN",
    "IsRestricted": false
  },
  {
    "Name": "Poland",
    "PhoneCode": "+48",
    "CountryCode": "PL",
    "IsRestricted": false
  },
  {
    "Name": "Portugal",
    "PhoneCode": "+351",
    "CountryCode": "PT",
    "IsRestricted": false
  },
  {
    "Name": "Puerto Rico",
    "PhoneCode": "+1939",
    "CountryCode": "PR",
    "IsRestricted": false
  },
  {
    "Name": "Qatar",
    "PhoneCode": "+974",
    "CountryCode": "QA",
    "IsRestricted": false
  },
  {
    "Name": "Romania",
    "PhoneCode": "+40",
    "CountryCode": "RO",
    "IsRestricted": false
  },
  {
    "Name": "Russia",
    "PhoneCode": "+7",
    "CountryCode": "RU",
    "IsRestricted": false
  },
  {
    "Name": "Rwanda",
    "PhoneCode": "+250",
    "CountryCode": "RW",
    "IsRestricted": false
  },
  {
    "Name": "Reunion",
    "PhoneCode": "+262",
    "CountryCode": "RE",
    "IsRestricted": false
  },
  {
    "Name": "Saint Barthelemy",
    "PhoneCode": "+590",
    "CountryCode": "BL",
    "IsRestricted": false
  },
  {
    "Name": "Saint Helena, Ascension and Tristan Da Cunha",
    "PhoneCode": "+290",
    "CountryCode": "SH",
    "IsRestricted": false
  },
  {
    "Name": "Saint Kitts and Nevis",
    "PhoneCode": "+1869",
    "CountryCode": "KN",
    "IsRestricted": false
  },
  {
    "Name": "Saint Lucia",
    "PhoneCode": "+1758",
    "CountryCode": "LC",
    "IsRestricted": false
  },
  {
    "Name": "Saint Martin",
    "PhoneCode": "+590",
    "CountryCode": "MF",
    "IsRestricted": false
  },
  {
    "Name": "Saint Pierre and Miquelon",
    "PhoneCode": "+508",
    "CountryCode": "PM",
    "IsRestricted": false
  },
  {
    "Name": "Saint Vincent and the Grenadines",
    "PhoneCode": "+1784",
    "CountryCode": "VC",
    "IsRestricted": false
  },
  {
    "Name": "Samoa",
    "PhoneCode": "+685",
    "CountryCode": "WS",
    "IsRestricted": false
  },
  {
    "Name": "San Marino",
    "PhoneCode": "+378",
    "CountryCode": "SM",
    "IsRestricted": false
  },
  {
    "Name": "Sao Tome and Principe",
    "PhoneCode": "+239",
    "CountryCode": "ST",
    "IsRestricted": false
  },
  {
    "Name": "Saudi Arabia",
    "PhoneCode": "+966",
    "CountryCode": "SA",
    "IsRestricted": false
  },
  {
    "Name": "Senegal",
    "PhoneCode": "+221",
    "CountryCode": "SN",
    "IsRestricted": false
  },
  {
    "Name": "Serbia",
    "PhoneCode": "+381",
    "CountryCode": "RS",
    "IsRestricted": false
  },
  {
    "Name": "Seychelles",
    "PhoneCode": "+248",
    "CountryCode": "SC",
    "IsRestricted": false
  },
  {
    "Name": "Sierra Leone",
    "PhoneCode": "+232",
    "CountryCode": "SL",
    "IsRestricted": false
  },
  {
    "Name": "Singapore",
    "PhoneCode": "+65",
    "CountryCode": "SG",
    "IsRestricted": false
  },
  {
    "Name": "Slovakia",
    "PhoneCode": "+421",
    "CountryCode": "SK",
    "IsRestricted": false
  },
  {
    "Name": "Slovenia",
    "PhoneCode": "+386",
    "CountryCode": "SI",
    "IsRestricted": false
  },
  {
    "Name": "Solomon Islands",
    "PhoneCode": "+677",
    "CountryCode": "SB",
    "IsRestricted": false
  },
  {
    "Name": "Somalia",
    "PhoneCode": "+252",
    "CountryCode": "SO",
    "IsRestricted": false
  },
  {
    "Name": "South Africa",
    "PhoneCode": "+27",
    "CountryCode": "ZA",
    "IsRestricted": false
  },
  {
    "Name": "South Sudan",
    "PhoneCode": "+211",
    "CountryCode": "SS",
    "IsRestricted": false
  },
  {
    "Name": "South Georgia and the South Sandwich Islands",
    "PhoneCode": "+500",
    "CountryCode": "GS",
    "IsRestricted": false
  },
  {
    "Name": "Spain",
    "PhoneCode": "+34",
    "CountryCode": "ES",
    "IsRestricted": false
  },
  {
    "Name": "Sri Lanka",
    "PhoneCode": "+94",
    "CountryCode": "LK",
    "IsRestricted": false
  },
  {
    "Name": "Sudan",
    "PhoneCode": "+249",
    "CountryCode": "SD",
    "IsRestricted": false
  },
  {
    "Name": "Suriname",
    "PhoneCode": "+597",
    "CountryCode": "SR",
    "IsRestricted": false
  },
  {
    "Name": "Svalbard and Jan Mayen",
    "PhoneCode": "+47",
    "CountryCode": "SJ",
    "IsRestricted": false
  },
  {
    "Name": "Swaziland",
    "PhoneCode": "+268",
    "CountryCode": "SZ",
    "IsRestricted": false
  },
  {
    "Name": "Sweden",
    "PhoneCode": "+46",
    "CountryCode": "SE",
    "IsRestricted": false
  },
  {
    "Name": "Switzerland",
    "PhoneCode": "+41",
    "CountryCode": "CH",
    "IsRestricted": false
  },
  {
    "Name": "Syrian Arab Republic",
    "PhoneCode": "+963",
    "CountryCode": "SY",
    "IsRestricted": false
  },
  {
    "Name": "Taiwan",
    "PhoneCode": "+886",
    "CountryCode": "TW",
    "IsRestricted": false
  },
  {
    "Name": "Tajikistan",
    "PhoneCode": "+992",
    "CountryCode": "TJ",
    "IsRestricted": false
  },
  {
    "Name": "Tanzania, United Republic of Tanzania",
    "PhoneCode": "+255",
    "CountryCode": "TZ",
    "IsRestricted": false
  },
  {
    "Name": "Thailand",
    "PhoneCode": "+66",
    "CountryCode": "TH",
    "IsRestricted": false
  },
  {
    "Name": "Timor-Leste",
    "PhoneCode": "+670",
    "CountryCode": "TL",
    "IsRestricted": false
  },
  {
    "Name": "Togo",
    "PhoneCode": "+228",
    "CountryCode": "TG",
    "IsRestricted": false
  },
  {
    "Name": "Tokelau",
    "PhoneCode": "+690",
    "CountryCode": "TK",
    "IsRestricted": false
  },
  {
    "Name": "Tonga",
    "PhoneCode": "+676",
    "CountryCode": "TO",
    "IsRestricted": false
  },
  {
    "Name": "Trinidad and Tobago",
    "PhoneCode": "+1868",
    "CountryCode": "TT",
    "IsRestricted": false
  },
  {
    "Name": "Tunisia",
    "PhoneCode": "+216",
    "CountryCode": "TN",
    "IsRestricted": false
  },
  {
    "Name": "Turkey",
    "PhoneCode": "+90",
    "CountryCode": "TR",
    "IsRestricted": false
  },
  {
    "Name": "Turkmenistan",
    "PhoneCode": "+993",
    "CountryCode": "TM",
    "IsRestricted": false
  },
  {
    "Name": "Turks and Caicos Islands",
    "PhoneCode": "+1649",
    "CountryCode": "TC",
    "IsRestricted": false
  },
  {
    "Name": "Tuvalu",
    "PhoneCode": "+688",
    "CountryCode": "TV",
    "IsRestricted": false
  },
  {
    "Name": "Uganda",
    "PhoneCode": "+256",
    "CountryCode": "UG",
    "IsRestricted": false
  },
  {
    "Name": "Ukraine",
    "PhoneCode": "+380",
    "CountryCode": "UA",
    "IsRestricted": false
  },
  {
    "Name": "United Arab Emirates",
    "PhoneCode": "+971",
    "CountryCode": "AE",
    "IsRestricted": false
  },
  {
    "Name": "United Kingdom",
    "PhoneCode": "+44",
    "CountryCode": "GB",
    "IsRestricted": false
  },
  {
    "Name": "United States",
    "PhoneCode": "+1",
    "CountryCode": "US",
    "IsRestricted": false
  },
  {
    "Name": "Uruguay",
    "PhoneCode": "+598",
    "CountryCode": "UY",
    "IsRestricted": false
  },
  {
    "Name": "Uzbekistan",
    "PhoneCode": "+998",
    "CountryCode": "UZ",
    "IsRestricted": false
  },
  {
    "Name": "Vanuatu",
    "PhoneCode": "+678",
    "CountryCode": "VU",
    "IsRestricted": false
  },
  {
    "Name": "Venezuela, Bolivarian Republic of Venezuela",
    "PhoneCode": "+58",
    "CountryCode": "VE",
    "IsRestricted": false
  },
  {
    "Name": "Vietnam",
    "PhoneCode": "+84",
    "CountryCode": "VN",
    "IsRestricted": false
  },
  {
    "Name": "Virgin Islands, British",
    "PhoneCode": "+1284",
    "CountryCode": "VG",
    "IsRestricted": false
  },
  {
    "Name": "Virgin Islands, U.S.",
    "PhoneCode": "+1340",
    "CountryCode": "VI",
    "IsRestricted": false
  },
  {
    "Name": "Wallis and Futuna",
    "PhoneCode": "+681",
    "CountryCode": "WF",
    "IsRestricted": false
  },
  {
    "Name": "Yemen",
    "PhoneCode": "+967",
    "CountryCode": "YE",
    "IsRestricted": false
  },
  {
    "Name": "Zambia",
    "PhoneCode": "+260",
    "CountryCode": "ZM",
    "IsRestricted": false
  },
  {
    "Name": "Zimbabwe",
    "PhoneCode": "+263",
    "CountryCode": "ZW"
  }
]